TDA/Binaries/Win64/TDA.exe	2022-04-29T19:44:51.327Z
TDA/Binaries/Win64/OpenImageDenoise.dll	2022-01-14T19:11:56.365Z
TDA/Binaries/Win64/tbb12.dll	2022-01-14T19:11:56.389Z
Engine/Extras/Redist/en-us/UE4PrereqSetup_x64.exe	2022-01-14T19:00:38.653Z
Engine/Binaries/ThirdParty/Oculus/OVRPlugin/OVRPlugin/Win64/OVRPlugin.dll	2022-01-14T18:53:42.687Z
Engine/Binaries/ThirdParty/DbgHelp/dbghelp.dll	2022-01-14T18:53:03.892Z
Engine/Binaries/ThirdParty/PhysX3/Win64/VS2015/PxFoundationPROFILE_x64.dll	2022-01-14T18:54:22.620Z
Engine/Binaries/ThirdParty/PhysX3/Win64/VS2015/PxPvdSDKPROFILE_x64.dll	2022-01-14T18:54:22.676Z
Engine/Binaries/ThirdParty/PhysX3/Win64/VS2015/PhysX3PROFILE_x64.dll	2022-01-14T18:54:22.505Z
Engine/Binaries/ThirdParty/PhysX3/Win64/VS2015/PhysX3CookingPROFILE_x64.dll	2022-01-14T18:54:22.472Z
Engine/Binaries/ThirdParty/PhysX3/Win64/VS2015/PhysX3CommonPROFILE_x64.dll	2022-01-14T18:54:22.378Z
Engine/Binaries/ThirdParty/PhysX3/Win64/VS2015/APEX_ClothingPROFILE_x64.dll	2022-01-14T18:54:16.345Z
Engine/Binaries/ThirdParty/PhysX3/Win64/VS2015/APEX_LegacyPROFILE_x64.dll	2022-01-14T18:54:18.050Z
Engine/Binaries/ThirdParty/PhysX3/Win64/VS2015/ApexFrameworkPROFILE_x64.dll	2022-01-14T18:54:22.109Z
Engine/Binaries/ThirdParty/PhysX3/Win64/VS2015/NvClothPROFILE_x64.dll	2022-01-14T18:54:22.195Z
Engine/Binaries/ThirdParty/Ogg/Win64/VS2015/libogg_64.dll	2022-01-14T18:53:42.833Z
Engine/Binaries/ThirdParty/Vorbis/Win64/VS2015/libvorbis_64.dll	2022-01-14T18:54:48.686Z
Engine/Binaries/ThirdParty/Vorbis/Win64/VS2015/libvorbisfile_64.dll	2022-01-14T18:54:48.702Z
Engine/Binaries/ThirdParty/NVIDIA/NVaftermath/Win64/GFSDK_Aftermath_Lib.x64.dll	2022-01-14T18:53:41.059Z
Engine/Binaries/ThirdParty/OpenXR/win64/openxr_loader.dll	2022-01-14T18:53:45.005Z
Engine/Binaries/ThirdParty/OpenVR/OpenVRv1_5_17/Win64/openvr_api.dll	2022-01-14T18:53:44.846Z
Engine/Binaries/ThirdParty/NVIDIA/GeForceNOW/Win64/GfnRuntimeSdk.dll	2022-01-14T18:53:41.015Z
Engine/Binaries/ThirdParty/Windows/WinPixEventRuntime/x64/WinPixEventRuntime.dll	2022-01-14T18:54:48.890Z
Engine/Binaries/ThirdParty/Windows/XAudio2_9/x64/xaudio2_9redist.dll	2022-01-14T18:54:49.199Z
TDA.exe	2022-04-29T20:09:48.898Z
